{
    "openapi": "3.0.0",
    "info": {
        "title": "WebAuto API Documentation",
        "description": "All requests must include parameter: `Accept` in the `Headers` to retrieve all responces in `application/json` format",
        "version": "1.0.0"
    },
    "servers": [
        {
            "url": "http://127.0.0.1:8005/api/v1",
            "description": "Demo API Server"
        }
    ],
    "paths": {
        "/deposits": {
            "get": {
                "tags": [
                    "Deposits"
                ],
                "summary": "Get list of the deposits",
                "description": "Return array of the deposits. Filters: user_id",
                "operationId": "getDeposits",
                "parameters": [
                    {
                        "$ref": "#/components/parameters/user_id"
                    }
                ],
                "responses": {
                    "200": {
                        "description": "Successful operation",
                        "content": {
                            "application/json": {
                                "schema": {
                                    "$ref": "#/components/schemas/DepositResource"
                                }
                            }
                        }
                    },
                    "400": {
                        "description": "Bad Request"
                    },
                    "401": {
                        "description": "Unauthenticated"
                    },
                    "403": {
                        "description": "Forbidden"
                    }
                }
            }
        },
        "/orders": {
            "get": {
                "tags": [
                    "Orders"
                ],
                "summary": "Get list of the orders",
                "description": "Return array of the orders. Filters: user_id",
                "operationId": "getOrders",
                "parameters": [
                    {
                        "$ref": "#/components/parameters/user_id"
                    }
                ],
                "responses": {
                    "200": {
                        "description": "Successful operation",
                        "content": {
                            "application/json": {
                                "schema": {
                                    "$ref": "#/components/schemas/OrderResource"
                                }
                            }
                        }
                    },
                    "400": {
                        "description": "Bad Request"
                    },
                    "401": {
                        "description": "Unauthenticated"
                    },
                    "403": {
                        "description": "Forbidden"
                    }
                }
            }
        },
        "/trades": {
            "get": {
                "tags": [
                    "Trades"
                ],
                "summary": "Get list of the trades",
                "description": "Return array of the trades. Filters: user_id",
                "operationId": "getTrades",
                "parameters": [
                    {
                        "$ref": "#/components/parameters/user_id"
                    }
                ],
                "responses": {
                    "200": {
                        "description": "Successful operation",
                        "content": {
                            "application/json": {
                                "schema": {
                                    "$ref": "#/components/schemas/TradeResource"
                                }
                            }
                        }
                    },
                    "400": {
                        "description": "Bad Request"
                    },
                    "401": {
                        "description": "Unauthenticated"
                    },
                    "403": {
                        "description": "Forbidden"
                    }
                }
            }
        },
        "/transactions": {
            "get": {
                "tags": [
                    "Transactions"
                ],
                "summary": "Get list of the transactions",
                "description": "Return array of the transactions. Filters: user_id",
                "operationId": "getTransactions",
                "parameters": [
                    {
                        "$ref": "#/components/parameters/user_id"
                    }
                ],
                "responses": {
                    "200": {
                        "description": "Successful operation",
                        "content": {
                            "application/json": {
                                "schema": {
                                    "$ref": "#/components/schemas/TransactionResource"
                                }
                            }
                        }
                    },
                    "400": {
                        "description": "Bad Request"
                    },
                    "401": {
                        "description": "Unauthenticated"
                    },
                    "403": {
                        "description": "Forbidden"
                    }
                }
            }
        },
        "/transactions/{type}": {
            "post": {
                "tags": [
                    "Transactions"
                ],
                "summary": "Create ticket for transaction",
                "description": "Create transaction. But this transaction must be approved by admin from admin panel.",
                "operationId": "createTransactions",
                "parameters": [
                    {
                        "name": "type",
                        "in": "path",
                        "description": "Transaction type. For now: bonus, penalty",
                        "required": true,
                        "schema": {
                            "type": "string"
                        },
                        "example": "bonus"
                    }
                ],
                "requestBody": {
                    "required": true,
                    "content": {
                        "application/json": {
                            "schema": {
                                "$ref": "#/components/schemas/RequestTransactionTicketCreate"
                            }
                        }
                    }
                },
                "responses": {
                    "201": {
                        "description": "Successful operation"
                    },
                    "400": {
                        "description": "Bad Request"
                    },
                    "401": {
                        "description": "Unauthenticated"
                    },
                    "403": {
                        "description": "Forbidden"
                    }
                }
            }
        },
        "/users/search": {
            "get": {
                "tags": [
                    "Users"
                ],
                "summary": "Get user information",
                "description": "Returns user data",
                "operationId": "searchUser",
                "parameters": [
                    {
                        "name": "login",
                        "in": "query",
                        "description": "User's login or email",
                        "required": true,
                        "schema": {
                            "type": "string"
                        }
                    },
                    {
                        "name": "wallet_address",
                        "in": "query",
                        "description": "The address of one of a user's wallets",
                        "schema": {
                            "type": "string"
                        }
                    }
                ],
                "responses": {
                    "200": {
                        "description": "Successful operation",
                        "content": {
                            "application/json": {
                                "schema": {
                                    "$ref": "#/components/schemas/UserSearchResource"
                                }
                            }
                        }
                    },
                    "400": {
                        "description": "Bad Request"
                    },
                    "401": {
                        "description": "Unauthenticated"
                    },
                    "403": {
                        "description": "Forbidden"
                    }
                }
            }
        },
        "/users/{id}": {
            "put": {
                "tags": [
                    "Users"
                ],
                "summary": "Update existing user",
                "description": "Update users data data",
                "operationId": "updateUser",
                "parameters": [
                    {
                        "name": "id",
                        "in": "path",
                        "description": "User id",
                        "required": true,
                        "schema": {
                            "type": "string"
                        }
                    }
                ],
                "requestBody": {
                    "required": true,
                    "content": {
                        "application/json": {
                            "schema": {
                                "$ref": "#/components/schemas/RequestUserUpdate"
                            }
                        }
                    }
                },
                "responses": {
                    "204": {
                        "description": "Successful updated",
                        "content": {
                            "application/json": {
                                "schema": {}
                            }
                        }
                    },
                    "400": {
                        "description": "Bad Request"
                    },
                    "401": {
                        "description": "Unauthenticated"
                    },
                    "403": {
                        "description": "Forbidden"
                    },
                    "404": {
                        "description": "User Not Found"
                    }
                }
            }
        },
        "/withdrawals": {
            "get": {
                "tags": [
                    "Withdrawals"
                ],
                "summary": "Get list of the withdrawals",
                "description": "Return array of the withdrawals. With filter: user_id",
                "operationId": "getWithdrawals",
                "parameters": [
                    {
                        "$ref": "#/components/parameters/user_id"
                    }
                ],
                "responses": {
                    "200": {
                        "description": "Successful operation",
                        "content": {
                            "application/json": {
                                "schema": {
                                    "$ref": "#/components/schemas/WithdrawalResource"
                                }
                            }
                        }
                    },
                    "400": {
                        "description": "Bad Request"
                    },
                    "401": {
                        "description": "Unauthenticated"
                    },
                    "403": {
                        "description": "Forbidden"
                    }
                }
            }
        }
    },
    "components": {
        "schemas": {
            "RequestTransactionTicketCreate": {
                "title": "RequestTransactionTicketCreate",
                "description": "Create transaction request body data",
                "required": [
                    "wallet_id",
                    "value",
                    "comment"
                ],
                "properties": {
                    "wallet_id": {
                        "$ref": "#/components/schemas/Wallet/properties/id"
                    },
                    "value": {
                        "$ref": "#/components/schemas/Transaction/properties/value"
                    },
                    "batch_id": {
                        "title": "Batch ID",
                        "description": "Batch id",
                        "type": "string"
                    },
                    "comment": {
                        "title": "Comment",
                        "description": "User's comment, why this transaction was created",
                        "type": "string"
                    }
                },
                "type": "object"
            },
            "RequestUserUpdate": {
                "title": "RequestUserUpdate",
                "description": "Update user request body data",
                "required": [],
                "properties": {
                    "email": {
                        "$ref": "#/components/schemas/User/properties/email"
                    },
                    "google_2fa": {
                        "title": "Google 2FA",
                        "description": "Parameter to disable google 2fa. If it present. Google 2fa will be disabled.",
                        "type": "boolean",
                        "example": false
                    }
                },
                "type": "object"
            },
            "DepositResource": {
                "title": "DepositResource",
                "description": "Deposit resource",
                "properties": {
                    "data": {
                        "type": "array",
                        "items": {
                            "$ref": "#/components/schemas/Deposit"
                        }
                    }
                },
                "type": "object"
            },
            "OrderResource": {
                "title": "OrderResource",
                "description": "Order resource",
                "properties": {
                    "data": {
                        "type": "array",
                        "items": {
                            "$ref": "#/components/schemas/Order"
                        }
                    }
                },
                "type": "object"
            },
            "TotalResource": {
                "title": "TotalResource",
                "description": "Total resource",
                "properties": {
                    "totals": {
                        "title": "Totals wrapper",
                        "description": "Totals wrapper",
                        "properties": {
                            "currency_code": {
                                "$ref": "#/components/schemas/Total"
                            }
                        },
                        "type": "object"
                    }
                },
                "type": "object"
            },
            "TradeResource": {
                "title": "TradeResource",
                "description": "Trade resource",
                "properties": {
                    "data": {
                        "type": "array",
                        "items": {
                            "$ref": "#/components/schemas/Trade"
                        }
                    }
                },
                "type": "object"
            },
            "TransactionResource": {
                "title": "TransactionResource",
                "description": "Transaction resource",
                "properties": {
                    "data": {
                        "type": "array",
                        "items": {
                            "$ref": "#/components/schemas/Transaction"
                        }
                    }
                },
                "type": "object"
            },
            "UserSearchResource": {
                "title": "UserSearchResource",
                "description": "User Search Resource",
                "properties": {
                    "data": {
                        "type": "object",
                        "allOf": [
                            {
                                "$ref": "#/components/schemas/User"
                            },
                            {
                                "properties": {
                                    "partner": {
                                        "$ref": "#/components/schemas/Partner"
                                    },
                                    "licence": {
                                        "$ref": "#/components/schemas/Licence"
                                    }
                                },
                                "type": "object"
                            },
                            {
                                "$ref": "#/components/schemas/WalletResource"
                            },
                            {
                                "$ref": "#/components/schemas/TotalResource"
                            }
                        ]
                    }
                },
                "type": "object"
            },
            "WalletResource": {
                "title": "WalletResource",
                "description": "Wallet resource",
                "properties": {
                    "wallets": {
                        "title": "Wallets wrapper",
                        "description": "Wallets wrapper",
                        "type": "array",
                        "items": {
                            "$ref": "#/components/schemas/Wallet"
                        }
                    }
                },
                "type": "object"
            },
            "WithdrawalResource": {
                "title": "WithdrawalResource",
                "description": "Withdrawal resource",
                "properties": {
                    "data": {
                        "type": "array",
                        "items": {
                            "$ref": "#/components/schemas/Withdrawal"
                        }
                    }
                },
                "type": "object"
            },
            "Deposit": {
                "title": "Deposit",
                "description": "Deposit information",
                "properties": {
                    "id": {
                        "title": "ID",
                        "description": "Deposit ID",
                        "type": "string",
                        "example": "b5d00f20-ff1d-11ea-8e8c-211d59c5f58c"
                    },
                    "value": {
                        "title": "Value",
                        "description": "Invested amount",
                        "type": "number",
                        "format": "float",
                        "example": 1000
                    },
                    "currency": {
                        "title": "Currency",
                        "description": "Currency code of the invested amount",
                        "type": "string",
                        "example": "WEC"
                    },
                    "duration": {
                        "title": "Duration",
                        "description": "Number of duration days for deposit",
                        "type": "integer",
                        "example": 365
                    },
                    "status": {
                        "title": "Status",
                        "description": "Status of the deposit",
                        "type": "string",
                        "example": "active"
                    },
                    "fst": {
                        "title": "Fast info",
                        "description": "Information about increasing",
                        "properties": {
                            "value": {
                                "title": "Value",
                                "description": "Amount of money spent for fast deposit",
                                "type": "number",
                                "format": "float"
                            },
                            "currency": {
                                "title": "Currency",
                                "description": "Currency of fst value",
                                "type": "string",
                                "example": "USD"
                            },
                            "days": {
                                "title": "Days",
                                "description": "Number of fasted days",
                                "type": "integer",
                                "example": 10
                            }
                        },
                        "type": "object"
                    },
                    "closing_at": {
                        "title": "Closing date",
                        "description": "Date of the deposit closing",
                        "type": "string",
                        "format": "datetime",
                        "example": "2020-01-01 17:50:45"
                    },
                    "created_at": {
                        "title": "Created At",
                        "description": "Date of the creating deposit",
                        "type": "string",
                        "format": "datetime",
                        "example": "2020-01-01 17:50:45"
                    }
                },
                "type": "object"
            },
            "Licence": {
                "title": "Licence",
                "description": "User's Licence",
                "properties": {
                    "id": {
                        "title": "ID",
                        "description": "Licence ID",
                        "type": "integer",
                        "example": 1
                    },
                    "name": {
                        "title": "Licence name",
                        "description": "Name of the licence",
                        "type": "string",
                        "example": "Licence 1"
                    },
                    "duration": {
                        "title": "Duration",
                        "description": "Number of duration days for licence",
                        "type": "integer",
                        "example": 365
                    },
                    "sell_limit": {
                        "title": "Sell Limit",
                        "description": "Sell dayly limit set for current user license",
                        "type": "integer",
                        "example": 1000
                    },
                    "buy_limit": {
                        "title": "Buy Limit",
                        "description": "Buy dayly limit set for current user license",
                        "type": "integer",
                        "example": 10000
                    }
                },
                "type": "object",
                "xml": {
                    "name": "Licence"
                }
            },
            "Order": {
                "title": "Order",
                "description": "Order information",
                "properties": {
                    "id": {
                        "title": "ID",
                        "description": "Order ID",
                        "type": "string",
                        "example": "b5d00f20-ff1d-11ea-8e8c-211d59c5f58c"
                    },
                    "type": {
                        "title": "Type",
                        "description": "Order type",
                        "type": "string",
                        "example": "sell"
                    },
                    "value": {
                        "title": "Value",
                        "description": "Order amount",
                        "type": "number",
                        "format": "float",
                        "example": 1000
                    },
                    "currency": {
                        "title": "Currency",
                        "description": "Currency code of the order amount",
                        "type": "string",
                        "example": "WEC"
                    },
                    "rate": {
                        "title": "Rate",
                        "description": "Rate for current order",
                        "type": "number",
                        "format": "float",
                        "example": 1000
                    },
                    "rate_currency": {
                        "title": "Rate Currency",
                        "description": "Currency code of rate",
                        "type": "string",
                        "example": "WEC"
                    },
                    "rate_amount": {
                        "title": "Rate amount",
                        "description": "Amont converted to rate",
                        "type": "number",
                        "format": "float",
                        "example": 1000
                    },
                    "licence_rate": {
                        "title": "License rate amount",
                        "description": "Rate for license",
                        "type": "number",
                        "format": "float",
                        "example": 1000
                    },
                    "licence_currency": {
                        "title": "License Currency",
                        "description": "Currency code of license",
                        "type": "string",
                        "example": "USD"
                    },
                    "status": {
                        "title": "Status",
                        "description": "Show status of order",
                        "type": "boolean",
                        "example": "string"
                    },
                    "created_at": {
                        "title": "Created At",
                        "description": "Date of the creating transaction",
                        "type": "string",
                        "format": "datetime",
                        "example": "2020-01-01 17:50:45"
                    },
                    "updated_at": {
                        "title": "Updated At",
                        "description": "Date of the updating order",
                        "type": "string",
                        "format": "datetime",
                        "example": "2020-01-01 17:50:45"
                    }
                },
                "type": "object"
            },
            "Partner": {
                "title": "Partner",
                "description": "User Partner",
                "properties": {
                    "id": {
                        "$ref": "#/components/schemas/User/properties/id"
                    },
                    "name": {
                        "$ref": "#/components/schemas/User/properties/name"
                    },
                    "login": {
                        "$ref": "#/components/schemas/User/properties/login"
                    },
                    "email": {
                        "title": "Partner Email",
                        "description": "Email of the partner",
                        "type": "string",
                        "example": "example@email.com"
                    }
                },
                "type": "object",
                "xml": {
                    "name": "Partner"
                }
            },
            "Total": {
                "title": "Total",
                "description": "User total information",
                "properties": {
                    "withdraws": {
                        "title": "Withdraws",
                        "description": "Total successful withdraws",
                        "type": "integer",
                        "format": "int64",
                        "example": 100
                    },
                    "deposited": {
                        "title": "Deposited",
                        "description": "Total successful deposited",
                        "type": "integer",
                        "format": "int64",
                        "example": 100
                    },
                    "transfers_send": {
                        "title": "Transfers",
                        "description": "Total successful send transfers",
                        "type": "integer",
                        "format": "int64",
                        "example": 100
                    },
                    "transfers_received": {
                        "title": "Transfers",
                        "description": "Total successful recieved transfers",
                        "type": "integer",
                        "format": "int64",
                        "example": 100
                    },
                    "earned": {
                        "title": "Earned",
                        "description": "Total amount earned",
                        "type": "integer",
                        "format": "int64",
                        "example": 100
                    },
                    "partner": {
                        "title": "Partner",
                        "description": "Total amount of the bonuses recieved for partners",
                        "type": "integer",
                        "format": "int64",
                        "example": 100
                    },
                    "bonus": {
                        "title": "Bonuses",
                        "description": "Total amount of the user's bonuses",
                        "type": "integer",
                        "format": "int64",
                        "example": 1000
                    },
                    "charity": {
                        "title": "Charity",
                        "description": "Total amount of the charity",
                        "type": "integer",
                        "format": "int64",
                        "example": 10
                    }
                },
                "type": "object",
                "xml": {
                    "name": "Total"
                }
            },
            "Trade": {
                "title": "Trade",
                "description": "Trade information",
                "properties": {
                    "id": {
                        "title": "ID",
                        "description": "Trade ID",
                        "type": "string",
                        "example": "b5d00f20-ff1d-11ea-8e8c-211d59c5f58c"
                    },
                    "type": {
                        "title": "Type",
                        "description": "Order type",
                        "type": "string",
                        "example": "sell"
                    },
                    "value": {
                        "title": "Value",
                        "description": "Order amount",
                        "type": "number",
                        "format": "float",
                        "example": 1000
                    },
                    "currency": {
                        "title": "Currency",
                        "description": "Currency code of the order amount",
                        "type": "string",
                        "example": "WEC"
                    },
                    "rate": {
                        "title": "Rate",
                        "description": "Rate for current order",
                        "type": "number",
                        "format": "float",
                        "example": 1000
                    },
                    "rate_currency": {
                        "title": "Rate Currency",
                        "description": "Currency code of rate",
                        "type": "string",
                        "example": "WEC"
                    },
                    "rate_amount": {
                        "title": "Rate amount",
                        "description": "Amont converted to rate",
                        "type": "number",
                        "format": "float",
                        "example": 1000
                    },
                    "limit_amount": {
                        "title": "Limit amount",
                        "description": "Limit amount for trade",
                        "type": "number",
                        "format": "float",
                        "example": 1000
                    },
                    "limit_currency": {
                        "title": "Limit Currency",
                        "description": "Currency code of the limit for trade",
                        "type": "string",
                        "example": "WEC"
                    },
                    "fee": {
                        "title": "Fee amount",
                        "description": "Amont of the fee",
                        "type": "number",
                        "format": "float",
                        "example": 10
                    },
                    "order_id": {
                        "title": "Order Id",
                        "description": "Order id for trade",
                        "type": "integer"
                    },
                    "created_at": {
                        "title": "Created At",
                        "description": "Date of the creating transaction",
                        "type": "string",
                        "format": "datetime",
                        "example": "2020-01-01 17:50:45"
                    },
                    "updated_at": {
                        "title": "Updated At",
                        "description": "Date of the updating order",
                        "type": "string",
                        "format": "datetime",
                        "example": "2020-01-01 17:50:45"
                    }
                },
                "type": "object"
            },
            "Transaction": {
                "title": "Transaction",
                "description": "Transaction information",
                "properties": {
                    "id": {
                        "title": "ID",
                        "description": "Transaction ID",
                        "type": "string",
                        "example": "b5d00f20-ff1d-11ea-8e8c-211d59c5f58c"
                    },
                    "type": {
                        "title": "Type",
                        "description": "Transaction type",
                        "type": "string",
                        "example": "send_transfer"
                    },
                    "value": {
                        "title": "Value",
                        "description": "Transaction amount",
                        "type": "number",
                        "format": "float",
                        "example": 1000
                    },
                    "currency": {
                        "title": "Currency",
                        "description": "Currency code of the transaction amount",
                        "type": "string",
                        "example": "WEC"
                    },
                    "approved": {
                        "title": "Approved",
                        "description": "Show if transaction is approved",
                        "type": "boolean",
                        "example": true
                    },
                    "batch_id": {
                        "title": "Batch id",
                        "description": "Batch id of the withdrawal",
                        "type": "string"
                    },
                    "order_id": {
                        "title": "Order Id",
                        "description": "Order id for transaction",
                        "type": "integer"
                    },
                    "source": {
                        "title": "Source",
                        "description": "Different additional information",
                        "type": "string"
                    },
                    "result": {
                        "title": "Result",
                        "description": "Result information for transactions",
                        "type": "string"
                    },
                    "created_at": {
                        "title": "Created At",
                        "description": "Date of the creating transaction",
                        "type": "string",
                        "format": "datetime",
                        "example": "2020-01-01 17:50:45"
                    }
                },
                "type": "object"
            },
            "User": {
                "title": "User",
                "description": "User Model",
                "properties": {
                    "id": {
                        "title": "ID",
                        "description": "ID",
                        "type": "string",
                        "example": "070d9b20-06d7-11eb-93ee-951cd25dc5ca"
                    },
                    "name": {
                        "title": "Name",
                        "description": "Full name of the user",
                        "type": "string"
                    },
                    "email": {
                        "title": "Email",
                        "description": "Email of the user",
                        "type": "string",
                        "example": "example@email.com"
                    },
                    "email_verified_at": {
                        "title": "Email Verified At",
                        "description": "Date of the email verification",
                        "type": "string",
                        "format": "datetime",
                        "example": "2020-01-01 17:50:45"
                    },
                    "login": {
                        "title": "Login",
                        "description": "Login of the user",
                        "type": "string",
                        "example": "login123"
                    },
                    "phone": {
                        "title": "Phone",
                        "description": "Phone of the user",
                        "type": "string",
                        "maxLength": 20,
                        "minLength": 10,
                        "example": "380661111111"
                    },
                    "skype": {
                        "title": "Skype",
                        "description": "Skype address of the user",
                        "type": "string",
                        "maxLength": 255,
                        "example": "live: skype"
                    },
                    "google_2fa": {
                        "title": "Google 2FA",
                        "description": "Flag which show status of google 2 factor authorization",
                        "type": "boolean",
                        "example": true
                    },
                    "referral_link": {
                        "title": "Referral Link",
                        "description": "Refferal link of the user",
                        "type": "string",
                        "example": "http://www.domain.com/path/id"
                    },
                    "rank": {
                        "title": "Rank",
                        "description": "Rane Name for the user",
                        "type": "string",
                        "example": "Partner"
                    },
                    "country": {
                        "title": "Country",
                        "description": "Country of the user",
                        "type": "string",
                        "example": "Ukraine"
                    },
                    "avatar": {
                        "title": "Avatar",
                        "description": "Link to user avatar",
                        "type": "string",
                        "example": "https://domain/path/img.jpg"
                    },
                    "registration_data": {
                        "title": "Registration date",
                        "description": "Date when user was created",
                        "type": "string",
                        "format": "datetime",
                        "example": "2020-01-01 17:50:45"
                    }
                },
                "type": "object",
                "xml": {
                    "name": "User"
                }
            },
            "Wallet": {
                "title": "Wallet",
                "description": "Wallet Model",
                "properties": {
                    "id": {
                        "title": "ID",
                        "description": "Wallet ID",
                        "type": "string",
                        "example": "071e8ce0-06d7-11eb-bf15-39f82180b0c0"
                    },
                    "balance": {
                        "title": "Balance",
                        "description": "Amout of balance for the wallet",
                        "type": "string",
                        "example": 1000
                    },
                    "currency": {
                        "title": "Currency",
                        "description": "Currency code",
                        "type": "string",
                        "example": "WEC"
                    },
                    "payment_system": {
                        "title": "Payment System",
                        "description": "Payment System Name which is connected to wallet",
                        "type": "string",
                        "example": "Webcoinapi"
                    },
                    "address": {
                        "title": "Address",
                        "description": "The address of the wallet",
                        "type": "string",
                        "example": "1BvBMSEYstWetqTFn5Au4m4GFg7xJaNVN2"
                    }
                },
                "type": "object",
                "xml": {
                    "name": "Wallet"
                }
            },
            "Withdrawal": {
                "title": "Withdrawal",
                "description": "Withdrawals information",
                "properties": {
                    "id": {
                        "title": "ID",
                        "description": "Withdrawal ID",
                        "type": "string",
                        "example": "b5d00f20-ff1d-11ea-8e8c-211d59c5f58c"
                    },
                    "payment_system": {
                        "title": "Payment System",
                        "description": "Paymrny system name",
                        "type": "string",
                        "example": "wecapicoin"
                    },
                    "value": {
                        "title": "Value",
                        "description": "Withdrawal amount",
                        "type": "number",
                        "format": "float",
                        "example": 1000
                    },
                    "currency": {
                        "title": "Currency",
                        "description": "Currency code of the withdrawal amount",
                        "type": "string",
                        "example": "WEC"
                    },
                    "status": {
                        "title": "Status",
                        "description": "Status of the withdrawal",
                        "type": "string",
                        "example": "Error"
                    },
                    "batch_id": {
                        "title": "Batch id",
                        "description": "Batch id of the withdrawal",
                        "type": "string"
                    },
                    "source": {
                        "title": "Source",
                        "description": "Source of the withdrawal",
                        "type": "string"
                    },
                    "result": {
                        "title": "Result",
                        "description": "Result information for transactions",
                        "type": "string"
                    },
                    "created_at": {
                        "title": "Created At",
                        "description": "Date of the creating withdrawal",
                        "type": "string",
                        "format": "datetime",
                        "example": "2020-01-01 17:50:45"
                    }
                },
                "type": "object"
            }
        },
        "parameters": {
            "Accept": {
                "name": "Accept",
                "in": "header",
                "description": "Type of the response",
                "required": true,
                "schema": {
                    "type": "string"
                },
                "example": "application/json"
            },
            "user_id": {
                "name": "user_id",
                "in": "query",
                "description": "Filter by user id",
                "required": true,
                "schema": {
                    "type": "string"
                }
            }
        },
        "securitySchemes": {
            "api_key_security": {
                "type": "apiKey",
                "description": "Api-Key to get access to api ",
                "name": "Api-Key",
                "in": "header"
            }
        }
    },
    "tags": [
        {
            "name": "Users",
            "description": "API Endpoints of Users"
        },
        {
            "name": "Transactions",
            "description": "API Endpoints of Transactions"
        },
        {
            "name": "Withdrawals",
            "description": "API Endpoints of Withdrawals"
        },
        {
            "name": "Deposits",
            "description": "API Endpoints of Deposits"
        },
        {
            "name": "Orders",
            "description": "API Endpoints of Orders"
        },
        {
            "name": "Trades",
            "description": "API Endpoints of Trades"
        }
    ],
    "security": [
        {
            "api_key_security": []
        }
    ]
}